handshakeRX/vcd_myRX.vcd
$date
     Oct 22, 2024       15:24:21
$end

$version
 SystemC 2.3.4-Accellera --- Dec  4 2023 14:09:46
$end

$timescale
     1 ps
$end

$scope module SystemC $end
$var wire    1  aaaaa  i_clock       $end
$var wire    1  aaaab  i_reset       $end
$var wire    1  aaaac  i_SoP       $end
$var wire    1  aaaad  i_Req       $end
$var wire    1  aaaae  i_fifo_full       $end
$var wire    8  aaaaf  i_fifo_dataOut [7:0]  $end
$var wire    1  aaaag  i_ready_to_receive       $end
$var wire    1  aaaah  o_OnOff       $end
$var wire    1  aaaai  o_fifo_push       $end
$var wire   32  aaaaj  state [31:0]  $end
$var wire    9  aaaak  count [8:0]  $end
$upscope $end
$enddefinitions  $end

$comment
All initial values are dumped below at time 1e-08 sec = 10000 timescale units.
$end

$dumpvars
0aaaaa
0aaaab
0aaaac
0aaaad
0aaaae
b110 aaaaf
0aaaag
0aaaah
0aaaai
b0 aaaaj
b0 aaaak
$end

#20000
1aaaaa

#30000
0aaaaa

#40000
1aaaaa

#50000
0aaaaa
1aaaab

#60000
1aaaaa

#70000
0aaaaa

#80000
1aaaaa

#90000
0aaaaa
0aaaab
1aaaag

#100000
1aaaaa
b1 aaaaj

#110000
0aaaaa
1aaaad
0aaaag

#120000
1aaaaa
1aaaah

#130000
0aaaaa
1aaaac

#140000
1aaaaa
b10 aaaaj

#150000
0aaaaa
0aaaac
1aaaae

#160000
1aaaaa
0aaaah
1aaaai
b111 aaaak

#170000
0aaaaa
0aaaad
0aaaae

#180000
1aaaaa
b11 aaaaj

#190000
0aaaaa
1aaaad

#200000
1aaaaa
1aaaah
0aaaai
b100 aaaaj

#210000
0aaaaa

#220000
1aaaaa
0aaaah
1aaaai
b11 aaaaj
b110 aaaak

#230000
0aaaaa
b1 aaaaf

#240000
1aaaaa
1aaaah
0aaaai
b100 aaaaj

#250000
0aaaaa

#260000
1aaaaa
0aaaah
1aaaai
b11 aaaaj
b101 aaaak

#270000
0aaaaa
b10 aaaaf

#280000
1aaaaa
1aaaah
0aaaai
b100 aaaaj

#290000
0aaaaa

#300000
1aaaaa
0aaaah
1aaaai
b11 aaaaj
b100 aaaak

#310000
0aaaaa
b11 aaaaf

#320000
1aaaaa
1aaaah
0aaaai
b100 aaaaj

#330000
0aaaaa

#340000
1aaaaa
0aaaah
1aaaai
b11 aaaaj
b11 aaaak

#350000
0aaaaa
b100 aaaaf

#360000
1aaaaa
1aaaah
0aaaai
b100 aaaaj

#370000
0aaaaa

#380000
1aaaaa
0aaaah
1aaaai
b11 aaaaj
b10 aaaak

#390000
0aaaaa
b101 aaaaf

#400000
1aaaaa
1aaaah
0aaaai
b100 aaaaj

#410000
0aaaaa

#420000
1aaaaa
0aaaah
1aaaai
b11 aaaaj
b1 aaaak

#430000
0aaaaa
b110 aaaaf

#440000
1aaaaa
1aaaah
0aaaai
b100 aaaaj

#450000
0aaaaa

#460000
1aaaaa
0aaaah
1aaaai
b11 aaaaj
b0 aaaak

#470000
0aaaaa
b111 aaaaf

#480000
1aaaaa
1aaaah
0aaaai
b1 aaaaj

#490000
0aaaaa

#500000
1aaaaa

#510000
0aaaaa
b1000 aaaaf

#520000
1aaaaa

#530000
0aaaaa

#540000
1aaaaa

#550000
0aaaaa
b1001 aaaaf

#560000
1aaaaa

#570000
0aaaaa

#580000
1aaaaa

#590000
0aaaaa
b1010 aaaaf

#600000
1aaaaa

#610000
0aaaaa

#620000
1aaaaa

#630000
0aaaaa
b1011 aaaaf

#640000
1aaaaa

#650000
0aaaaa

#660000
1aaaaa

#670000
0aaaaa
b1100 aaaaf

#680000
1aaaaa

#690000
0aaaaa

#700000
1aaaaa

#710000
0aaaaa
b1101 aaaaf

#720000
1aaaaa

#730000
0aaaaa

#740000
1aaaaa

#750000
0aaaaa
b1110 aaaaf

#760000
1aaaaa

#770000
0aaaaa

#780000
1aaaaa

#790000
0aaaaa
b1111 aaaaf

